{
  "message":"Products List",
  "data":[
    {
      "id":1,
      "name":"Relaxation Massage",
      "ratingCount":300,
      "locationId":1
    },
    {
      "id":2,
      "name":"Relaxation Massage",
      "ratingCount":300,
      "locationId":2
    },
    {
      "id":3,
      "name":"Relaxation Massage",
      "ratingCount":300,
      "locationId":3
    },
    {
      "id":4,
      "name":"Deep Tissue Massage",
      "ratingCount":200,
      "locationId":3
    },
    {
      "id":5,
      "name":"Deep Tissue Massage",
      "ratingCount":200,
      "locationId":2
    },
    {
      "id":6,
      "name":"Remedial Massage",
      "ratingCount":500
    },
    {
      "id":7,
      "name":"Remedial Massage",
      "ratingCount":500
    },
    {
      "id":8,
      "name":"Remedial Massage 2",
      "ratingCount":400
    },
    {
      "id":9,
      "name":"Deep Tissue Massage 2",
      "ratingCount":350
    }
  ]
}